module mycc

go 1.17

require (
	github.com/hyperledger/fabric-chaincode-go v0.0.0-20210718160520-38d29fabecb9
	github.com/hyperledger/fabric-protos-go v0.0.0-20211118165945-23d738fc3553
)

require (
	github.com/golang/protobuf v1.3.2 // indirect
	golang.org/x/net v0.0.0-20190522155817-f3200d17e092 // indirect
	golang.org/x/sys v0.0.0-20190710143415-6ec70d6a5542 // indirect
	golang.org/x/text v0.3.0 // indirect
	google.golang.org/genproto v0.0.0-20180831171423-11092d34479b // indirect
	google.golang.org/grpc v1.23.0 // indirect
)
